Embedded/l9/counter.vcd
$date
  Thu Jun 22 13:39:00 2017
$end
$version
  GHDL v0
$end
$timescale
  1 fs
$end
$var reg 1 ! ram_mode $end
$var reg 1 " ctr_inc $end
$var reg 1 # ctr_mode $end
$var reg 1 $ ctrl_ram $end
$var reg 1 % ctrl_ctr $end
$var reg 5 & mem_adr[4:0] $end
$var reg 9 ' data_bus[8:0] $end
$scope module ram_unit $end
$var reg 1 ( ctrl $end
$var reg 1 ) mode $end
$var reg 5 * mem_adr[4:0] $end
$var reg 9 + data_bus[8:0] $end
$upscope $end
$scope module uut $end
$var reg 1 , ctrl $end
$var reg 1 - mode $end
$var reg 1 . inc $end
$var reg 5 / data_bus[4:0] $end
$var reg 5 0 pc[4:0] $end
$upscope $end
$enddefinitions $end
#0
0!
U"
0#
0$
0%
bUUUUU &
bZZZZZZZZZ '
0(
0)
bUUUUU *
bZZZZZZZZZ +
0,
0-
U.
bZZZZZ /
b00000 0
#10000000
1#
1%
bZZZZ00000 '
bZZZZ00000 +
1,
1-
b00000 /
#20000000
1!
1$
0%
b00000 &
b000100100 '
1(
1)
b00000 *
b000100100 +
0,
b00100 /
#30000000
1"
0#
0$
1%
bZZZZZZZZZ '
0(
bZZZZZZZZZ +
1,
0-
1.
bZZZZZ /
b00001 0
#40000000
0"
1#
bZZZZ00001 '
bZZZZ00001 +
1-
0.
b00001 /
#50000000
1$
0%
b00001 &
b010000100 '
1(
b00001 *
b010000100 +
0,
b00100 /
#60000000
1"
0#
0$
1%
bZZZZZZZZZ '
0(
bZZZZZZZZZ +
1,
0-
1.
bZZZZZ /
b00010 0
#70000000
0"
1#
bZZZZ00010 '
bZZZZ00010 +
1-
0.
b00010 /
#80000000
1$
0%
b00010 &
b100000001 '
1(
b00010 *
b100000001 +
0,
b00001 /
#90000000
1"
0#
0$
1%
bZZZZZZZZZ '
0(
bZZZZZZZZZ +
1,
0-
1.
bZZZZZ /
b00011 0
#100000000
0"
1#
bZZZZ00011 '
bZZZZ00011 +
1-
0.
b00011 /
#110000000
1$
0%
b00011 &
b011000000 '
1(
b00011 *
b011000000 +
0,
b00000 /
#120000000
1"
0#
0$
1%
bZZZZZZZZZ '
0(
bZZZZZZZZZ +
1,
0-
1.
bZZZZZ /
b00100 0
#130000000
0"
1#
bZZZZ00100 '
bZZZZ00100 +
1-
0.
b00100 /
#140000000
1$
0%
b00100 &
b011100000 '
1(
b00100 *
b011100000 +
0,
b00000 /
#150000000
1"
0#
0$
1%
bZZZZZZZZZ '
0(
bZZZZZZZZZ +
1,
0-
1.
bZZZZZ /
b00101 0
#160000000
0"
1#
bZZZZ00101 '
bZZZZ00101 +
1-
0.
b00101 /
#170000000
1$
0%
b00101 &
b000011111 '
1(
b00101 *
b000011111 +
0,
b11111 /
#180000000
1"
0#
0$
1%
bZZZZZZZZZ '
0(
bZZZZZZZZZ +
1,
0-
1.
bZZZZZ /
b00110 0
#190000000
0"
1#
bZZZZ00110 '
bZZZZ00110 +
1-
0.
b00110 /
#200000000
1$
0%
b00110 &
b000000000 '
1(
b00110 *
b000000000 +
0,
b00000 /
#210000000
1"
0#
0$
1%
bZZZZZZZZZ '
0(
bZZZZZZZZZ +
1,
0-
1.
bZZZZZ /
b00111 0
#220000000
0"
1#
bZZZZ00111 '
bZZZZ00111 +
1-
0.
b00111 /
#230000000
1$
0%
b00111 &
b000000000 '
1(
b00111 *
b000000000 +
0,
b00000 /
#240000000
1"
0#
0$
1%
bZZZZZZZZZ '
0(
bZZZZZZZZZ +
1,
0-
1.
bZZZZZ /
b01000 0
#250000000
0"
1#
bZZZZ01000 '
bZZZZ01000 +
1-
0.
b01000 /
#260000000
1$
0%
b01000 &
b000000000 '
1(
b01000 *
b000000000 +
0,
b00000 /
#270000000
1"
0#
0$
1%
bZZZZZZZZZ '
0(
bZZZZZZZZZ +
1,
0-
1.
bZZZZZ /
b01001 0
#280000000
0"
0%
0,
0.
